MAKEFILE_COVERAGE/tb_ip_TIMER.vcd
$date
	Fri Aug 22 16:11:25 2025
$end
$version
	QuestaSim Version 10.2c
$end
$timescale
	1ps
$end

$scope module tb_ip_TIMER $end
$var parameter 32 ! ADDR_WIDTH $end
$var integer 32 " err_cnt $end
$var reg 1 # PCLK $end
$var reg 1 $ PRESETn $end
$var wire 1 % CLK_IN [3] $end
$var wire 1 & CLK_IN [2] $end
$var wire 1 ' CLK_IN [1] $end
$var wire 1 ( CLK_IN [0] $end
$var wire 1 ) PSEL $end
$var wire 1 * PENABLE $end
$var wire 1 + PWRITE $end
$var wire 1 , PADDR [7] $end
$var wire 1 - PADDR [6] $end
$var wire 1 . PADDR [5] $end
$var wire 1 / PADDR [4] $end
$var wire 1 0 PADDR [3] $end
$var wire 1 1 PADDR [2] $end
$var wire 1 2 PADDR [1] $end
$var wire 1 3 PADDR [0] $end
$var wire 1 4 PWDATA [7] $end
$var wire 1 5 PWDATA [6] $end
$var wire 1 6 PWDATA [5] $end
$var wire 1 7 PWDATA [4] $end
$var wire 1 8 PWDATA [3] $end
$var wire 1 9 PWDATA [2] $end
$var wire 1 : PWDATA [1] $end
$var wire 1 ; PWDATA [0] $end
$var wire 1 < PRDATA [7] $end
$var wire 1 = PRDATA [6] $end
$var wire 1 > PRDATA [5] $end
$var wire 1 ? PRDATA [4] $end
$var wire 1 @ PRDATA [3] $end
$var wire 1 A PRDATA [2] $end
$var wire 1 B PRDATA [1] $end
$var wire 1 C PRDATA [0] $end
$var wire 1 D PREADY $end
$var wire 1 E PSLVERR $end
$var wire 1 F TMR_OVF $end
$var wire 1 G TMR_UDF $end
$var reg 8 H w_rand_data [7:0] $end
$var reg 8 I data_write [7:0] $end
$var reg 8 J data_read [7:0] $end
$var reg 8 K cnt_before_write [7:0] $end
$var reg 8 L cnt_after_write [7:0] $end
$var reg 8 M null_addr [7:0] $end
$var reg 8 N mixed_addr [7:0] $end

$scope task tc_tdr_rw $end
$upscope $end

$scope task tc_tcr_rw $end
$upscope $end

$scope task tc_tsr_rw $end
$upscope $end

$scope task tc_tcnt_ro $end
$upscope $end

$scope task tc_null_addr $end
$upscope $end

$scope task tc_mixed_addr $end
$upscope $end

$scope task upcount_check_clr_ovf $end
$upscope $end

$scope task dwcount_check_clr_udf $end
$upscope $end

$scope task upcount_forkjoin $end

$scope begin mon1_up $end
$upscope $end

$scope begin mon2_up $end
$upscope $end
$upscope $end

$scope task dwcount_forkjoin $end

$scope begin mon1 $end
$upscope $end

$scope begin mon2 $end
$upscope $end
$upscope $end

$scope task updwcount_timer_pause_resume $end
$upscope $end

$scope module u_cnt_sys_signal $end
$var parameter 32 O sys_clk_period $end
$var wire 1 P sys_clk_w $end
$var wire 1 Q sys_rst_n_w $end
$var wire 1 % clk_in_w [3] $end
$var wire 1 & clk_in_w [2] $end
$var wire 1 ' clk_in_w [1] $end
$var wire 1 ( clk_in_w [0] $end
$var wire 1 R sys_clk_int $end

$scope module signal_gen_inst $end
$var parameter 32 S sys_clk_period $end
$var reg 1 T sys_clk $end
$var reg 1 U sys_rst_n $end
$upscope $end

$scope module clk_gen_inst $end
$var wire 1 R sys_clk $end
$var wire 1 % clk_in [3] $end
$var wire 1 & clk_in [2] $end
$var wire 1 ' clk_in [1] $end
$var wire 1 ( clk_in [0] $end
$var reg 1 V clk_div2 $end
$var reg 1 W clk_div4 $end
$var reg 1 X clk_div8 $end
$var reg 1 Y clk_div16 $end
$upscope $end
$upscope $end

$scope module u_APB_trans_bus $end
$var parameter 32 Z ADDR_WIDTH $end
$var wire 1 [ PCLK $end
$var wire 1 \ PRESETn $end
$var wire 1 D PREADY $end
$var wire 1 E PSLVERR $end
$var wire 1 < PRDATA [7] $end
$var wire 1 = PRDATA [6] $end
$var wire 1 > PRDATA [5] $end
$var wire 1 ? PRDATA [4] $end
$var wire 1 @ PRDATA [3] $end
$var wire 1 A PRDATA [2] $end
$var wire 1 B PRDATA [1] $end
$var wire 1 C PRDATA [0] $end
$var reg 1 ] PSEL $end
$var reg 1 ^ PENABLE $end
$var reg 1 _ PWRITE $end
$var reg 8 ` PADDR [7:0] $end
$var reg 8 a PWDATA [7:0] $end

$scope task initialization $end
$upscope $end

$scope task apb_write $end
$var reg 8 b addr [7:0] $end
$var reg 8 c data [7:0] $end
$upscope $end

$scope task apb_read $end
$var reg 8 d addr [7:0] $end
$var reg 8 e data_out [7:0] $end
$upscope $end

$scope task clear_tsr $end
$upscope $end

$scope function config_TCR $end
$upscope $end

$scope task program_and_start $end
$upscope $end

$scope task pause_counter $end
$var reg 1 f updown $end
$var reg 2 g cks [1:0] $end
$var reg 8 h tcr_config [7:0] $end
$upscope $end

$scope task resume_counter $end
$var reg 1 i updown $end
$var reg 2 j cks [1:0] $end
$var reg 8 k tcr_config [7:0] $end
$upscope $end
$upscope $end

$scope module u_ip_timer $end
$var parameter 32 l ADDR_WIDTH $end
$var wire 1 % CLK_IN [3] $end
$var wire 1 & CLK_IN [2] $end
$var wire 1 ' CLK_IN [1] $end
$var wire 1 ( CLK_IN [0] $end
$var wire 1 [ PCLK $end
$var wire 1 \ PRESETn $end
$var wire 1 ) PSEL $end
$var wire 1 * PENABLE $end
$var wire 1 + PWRITE $end
$var wire 1 , PADDR [7] $end
$var wire 1 - PADDR [6] $end
$var wire 1 . PADDR [5] $end
$var wire 1 / PADDR [4] $end
$var wire 1 0 PADDR [3] $end
$var wire 1 1 PADDR [2] $end
$var wire 1 2 PADDR [1] $end
$var wire 1 3 PADDR [0] $end
$var wire 1 4 PWDATA [7] $end
$var wire 1 5 PWDATA [6] $end
$var wire 1 6 PWDATA [5] $end
$var wire 1 7 PWDATA [4] $end
$var wire 1 8 PWDATA [3] $end
$var wire 1 9 PWDATA [2] $end
$var wire 1 : PWDATA [1] $end
$var wire 1 ; PWDATA [0] $end
$var wire 1 < PRDATA [7] $end
$var wire 1 = PRDATA [6] $end
$var wire 1 > PRDATA [5] $end
$var wire 1 ? PRDATA [4] $end
$var wire 1 @ PRDATA [3] $end
$var wire 1 A PRDATA [2] $end
$var wire 1 B PRDATA [1] $end
$var wire 1 C PRDATA [0] $end
$var wire 1 D PREADY $end
$var wire 1 E PSLVERR $end
$var wire 1 F TMR_OVF $end
$var wire 1 G TMR_UDF $end
$var wire 1 m TDR_reg [7] $end
$var wire 1 n TDR_reg [6] $end
$var wire 1 o TDR_reg [5] $end
$var wire 1 p TDR_reg [4] $end
$var wire 1 q TDR_reg [3] $end
$var wire 1 r TDR_reg [2] $end
$var wire 1 s TDR_reg [1] $end
$var wire 1 t TDR_reg [0] $end
$var wire 1 u TCR_reg [7] $end
$var wire 1 v TCR_reg [6] $end
$var wire 1 w TCR_reg [5] $end
$var wire 1 x TCR_reg [4] $end
$var wire 1 y TCR_reg [3] $end
$var wire 1 z TCR_reg [2] $end
$var wire 1 { TCR_reg [1] $end
$var wire 1 | TCR_reg [0] $end
$var wire 1 } TSR_reg [7] $end
$var wire 1 ~ TSR_reg [6] $end
$var wire 1 !! TSR_reg [5] $end
$var wire 1 "! TSR_reg [4] $end
$var wire 1 #! TSR_reg [3] $end
$var wire 1 $! TSR_reg [2] $end
$var wire 1 %! TSR_reg [1] $end
$var wire 1 &! TSR_reg [0] $end
$var wire 1 '! TCNT_reg [7] $end
$var wire 1 (! TCNT_reg [6] $end
$var wire 1 )! TCNT_reg [5] $end
$var wire 1 *! TCNT_reg [4] $end
$var wire 1 +! TCNT_reg [3] $end
$var wire 1 ,! TCNT_reg [2] $end
$var wire 1 -! TCNT_reg [1] $end
$var wire 1 .! TCNT_reg [0] $end
$var wire 1 /! count_start_value [7] $end
$var wire 1 0! count_start_value [6] $end
$var wire 1 1! count_start_value [5] $end
$var wire 1 2! count_start_value [4] $end
$var wire 1 3! count_start_value [3] $end
$var wire 1 4! count_start_value [2] $end
$var wire 1 5! count_start_value [1] $end
$var wire 1 6! count_start_value [0] $end
$var wire 1 7! count_load $end
$var wire 1 8! count_enable $end
$var wire 1 9! count_up_down $end
$var wire 1 :! cks [1] $end
$var wire 1 ;! cks [0] $end
$var wire 1 <! TMR_Edge $end
$var wire 1 =! TMR_OVF_int $end
$var wire 1 >! TMR_UDF_int $end

$scope module u_rw_reg_control $end
$var parameter 32 ?! ADDR_WIDTH $end
$var wire 1 [ PCLK $end
$var wire 1 \ PRESETn $end
$var wire 1 ) PSEL $end
$var wire 1 * PENABLE $end
$var wire 1 + PWRITE $end
$var wire 1 , PADDR [7] $end
$var wire 1 - PADDR [6] $end
$var wire 1 . PADDR [5] $end
$var wire 1 / PADDR [4] $end
$var wire 1 0 PADDR [3] $end
$var wire 1 1 PADDR [2] $end
$var wire 1 2 PADDR [1] $end
$var wire 1 3 PADDR [0] $end
$var wire 1 4 PWDATA [7] $end
$var wire 1 5 PWDATA [6] $end
$var wire 1 6 PWDATA [5] $end
$var wire 1 7 PWDATA [4] $end
$var wire 1 8 PWDATA [3] $end
$var wire 1 9 PWDATA [2] $end
$var wire 1 : PWDATA [1] $end
$var wire 1 ; PWDATA [0] $end
$var wire 1 < PRDATA [7] $end
$var wire 1 = PRDATA [6] $end
$var wire 1 > PRDATA [5] $end
$var wire 1 ? PRDATA [4] $end
$var wire 1 @ PRDATA [3] $end
$var wire 1 A PRDATA [2] $end
$var wire 1 B PRDATA [1] $end
$var wire 1 C PRDATA [0] $end
$var wire 1 D PREADY $end
$var wire 1 E PSLVERR $end
$var wire 1 =! TMR_OVF $end
$var wire 1 >! TMR_UDF $end
$var wire 1 '! TCNT [7] $end
$var wire 1 (! TCNT [6] $end
$var wire 1 )! TCNT [5] $end
$var wire 1 *! TCNT [4] $end
$var wire 1 +! TCNT [3] $end
$var wire 1 ,! TCNT [2] $end
$var wire 1 -! TCNT [1] $end
$var wire 1 .! TCNT [0] $end
$var wire 1 m TDR [7] $end
$var wire 1 n TDR [6] $end
$var wire 1 o TDR [5] $end
$var wire 1 p TDR [4] $end
$var wire 1 q TDR [3] $end
$var wire 1 r TDR [2] $end
$var wire 1 s TDR [1] $end
$var wire 1 t TDR [0] $end
$var wire 1 u TCR [7] $end
$var wire 1 v TCR [6] $end
$var wire 1 w TCR [5] $end
$var wire 1 x TCR [4] $end
$var wire 1 y TCR [3] $end
$var wire 1 z TCR [2] $end
$var wire 1 { TCR [1] $end
$var wire 1 | TCR [0] $end
$var wire 1 } TSR [7] $end
$var wire 1 ~ TSR [6] $end
$var wire 1 !! TSR [5] $end
$var wire 1 "! TSR [4] $end
$var wire 1 #! TSR [3] $end
$var wire 1 $! TSR [2] $end
$var wire 1 %! TSR [1] $end
$var wire 1 &! TSR [0] $end
$var wire 1 @! reg_TDR [7] $end
$var wire 1 A! reg_TDR [6] $end
$var wire 1 B! reg_TDR [5] $end
$var wire 1 C! reg_TDR [4] $end
$var wire 1 D! reg_TDR [3] $end
$var wire 1 E! reg_TDR [2] $end
$var wire 1 F! reg_TDR [1] $end
$var wire 1 G! reg_TDR [0] $end
$var wire 1 H! reg_TCR [7] $end
$var wire 1 I! reg_TCR [6] $end
$var wire 1 J! reg_TCR [5] $end
$var wire 1 K! reg_TCR [4] $end
$var wire 1 L! reg_TCR [3] $end
$var wire 1 M! reg_TCR [2] $end
$var wire 1 N! reg_TCR [1] $end
$var wire 1 O! reg_TCR [0] $end
$var wire 1 P! reg_TSR [7] $end
$var wire 1 Q! reg_TSR [6] $end
$var wire 1 R! reg_TSR [5] $end
$var wire 1 S! reg_TSR [4] $end
$var wire 1 T! reg_TSR [3] $end
$var wire 1 U! reg_TSR [2] $end
$var wire 1 V! reg_TSR [1] $end
$var wire 1 W! reg_TSR [0] $end
$var wire 1 X! apb_flag $end
$var wire 1 Y! apb_pready $end
$var wire 1 Z! apb_pslverr $end
$var wire 1 [! read_prdata [7] $end
$var wire 1 \! read_prdata [6] $end
$var wire 1 ]! read_prdata [5] $end
$var wire 1 ^! read_prdata [4] $end
$var wire 1 _! read_prdata [3] $end
$var wire 1 `! read_prdata [2] $end
$var wire 1 a! read_prdata [1] $end
$var wire 1 b! read_prdata [0] $end

$scope module u_apb_trans $end
$var parameter 32 c! ADDR_WIDTH $end
$var parameter 2 d! IDLE $end
$var parameter 2 e! SETUP $end
$var parameter 2 f! ACCESS $end
$var wire 1 [ pclk $end
$var wire 1 \ preset_n $end
$var wire 1 ) psel $end
$var wire 1 * penable $end
$var wire 1 + pwrite $end
$var wire 1 , paddr [7] $end
$var wire 1 - paddr [6] $end
$var wire 1 . paddr [5] $end
$var wire 1 / paddr [4] $end
$var wire 1 0 paddr [3] $end
$var wire 1 1 paddr [2] $end
$var wire 1 2 paddr [1] $end
$var wire 1 3 paddr [0] $end
$var wire 1 X! flag $end
$var reg 1 g! pready $end
$var reg 1 h! pslverr $end
$var reg 2 i! cur_state [1:0] $end
$var reg 2 j! next_state [1:0] $end
$var wire 1 k! flag_init $end
$var wire 1 l! invalid_addr $end
$upscope $end

$scope module u_rw_write_logic $end
$var parameter 32 m! ADDR_WIDTH $end
$var wire 1 [ pclk $end
$var wire 1 \ preset_n $end
$var wire 1 X! flag $end
$var wire 1 + pwrite $end
$var wire 1 , paddr [7] $end
$var wire 1 - paddr [6] $end
$var wire 1 . paddr [5] $end
$var wire 1 / paddr [4] $end
$var wire 1 0 paddr [3] $end
$var wire 1 1 paddr [2] $end
$var wire 1 2 paddr [1] $end
$var wire 1 3 paddr [0] $end
$var wire 1 4 pwdata [7] $end
$var wire 1 5 pwdata [6] $end
$var wire 1 6 pwdata [5] $end
$var wire 1 7 pwdata [4] $end
$var wire 1 8 pwdata [3] $end
$var wire 1 9 pwdata [2] $end
$var wire 1 : pwdata [1] $end
$var wire 1 ; pwdata [0] $end
$var wire 1 =! ovf_flag $end
$var wire 1 >! udf_flag $end
$var reg 8 n! TDR [7:0] $end
$var reg 8 o! TCR [7:0] $end
$var reg 8 p! TSR [7:0] $end
$var wire 1 q! w_reg_sel [2] $end
$var wire 1 r! w_reg_sel [1] $end
$var wire 1 s! w_reg_sel [0] $end
$var wire 1 t! write_en $end
$var wire 1 u! wdata_tdr [7] $end
$var wire 1 v! wdata_tdr [6] $end
$var wire 1 w! wdata_tdr [5] $end
$var wire 1 x! wdata_tdr [4] $end
$var wire 1 y! wdata_tdr [3] $end
$var wire 1 z! wdata_tdr [2] $end
$var wire 1 {! wdata_tdr [1] $end
$var wire 1 |! wdata_tdr [0] $end
$var wire 1 }! wdata_tcr [7] $end
$var wire 1 ~! wdata_tcr [6] $end
$var wire 1 !" wdata_tcr [5] $end
$var wire 1 "" wdata_tcr [4] $end
$var wire 1 #" wdata_tcr [3] $end
$var wire 1 $" wdata_tcr [2] $end
$var wire 1 %" wdata_tcr [1] $end
$var wire 1 &" wdata_tcr [0] $end
$var wire 1 '" wdata_tsr [7] $end
$var wire 1 (" wdata_tsr [6] $end
$var wire 1 )" wdata_tsr [5] $end
$var wire 1 *" wdata_tsr [4] $end
$var wire 1 +" wdata_tsr [3] $end
$var wire 1 ," wdata_tsr [2] $end
$var wire 1 -" wdata_tsr [1] $end
$var wire 1 ." wdata_tsr [0] $end
$upscope $end

$scope module u_rw_read_logic $end
$var parameter 32 /" ADDR_WIDTH $end
$var wire 1 [ pclk $end
$var wire 1 \ preset_n $end
$var wire 1 X! flag $end
$var wire 1 + pwrite $end
$var wire 1 , paddr [7] $end
$var wire 1 - paddr [6] $end
$var wire 1 . paddr [5] $end
$var wire 1 / paddr [4] $end
$var wire 1 0 paddr [3] $end
$var wire 1 1 paddr [2] $end
$var wire 1 2 paddr [1] $end
$var wire 1 3 paddr [0] $end
$var wire 1 @! TDR [7] $end
$var wire 1 A! TDR [6] $end
$var wire 1 B! TDR [5] $end
$var wire 1 C! TDR [4] $end
$var wire 1 D! TDR [3] $end
$var wire 1 E! TDR [2] $end
$var wire 1 F! TDR [1] $end
$var wire 1 G! TDR [0] $end
$var wire 1 H! TCR [7] $end
$var wire 1 I! TCR [6] $end
$var wire 1 J! TCR [5] $end
$var wire 1 K! TCR [4] $end
$var wire 1 L! TCR [3] $end
$var wire 1 M! TCR [2] $end
$var wire 1 N! TCR [1] $end
$var wire 1 O! TCR [0] $end
$var wire 1 P! TSR [7] $end
$var wire 1 Q! TSR [6] $end
$var wire 1 R! TSR [5] $end
$var wire 1 S! TSR [4] $end
$var wire 1 T! TSR [3] $end
$var wire 1 U! TSR [2] $end
$var wire 1 V! TSR [1] $end
$var wire 1 W! TSR [0] $end
$var wire 1 '! TCNT [7] $end
$var wire 1 (! TCNT [6] $end
$var wire 1 )! TCNT [5] $end
$var wire 1 *! TCNT [4] $end
$var wire 1 +! TCNT [3] $end
$var wire 1 ,! TCNT [2] $end
$var wire 1 -! TCNT [1] $end
$var wire 1 .! TCNT [0] $end
$var reg 8 0" prdata [7:0] $end
$var wire 1 1" read_en $end
$upscope $end
$upscope $end

$scope module u_pos_cnt_edge_detect $end
$var wire 1 [ pclk $end
$var wire 1 \ preset_n $end
$var wire 1 % CLK_IN [3] $end
$var wire 1 & CLK_IN [2] $end
$var wire 1 ' CLK_IN [1] $end
$var wire 1 ( CLK_IN [0] $end
$var wire 1 :! cks [1] $end
$var wire 1 ;! cks [0] $end
$var wire 1 <! TMR_Edge $end
$var wire 1 2" TMR_CLK_IN $end

$scope module u_clk_sel_synced_alt $end
$var wire 1 [ pclk $end
$var wire 1 \ preset_n $end
$var wire 1 % CLK_IN [3] $end
$var wire 1 & CLK_IN [2] $end
$var wire 1 ' CLK_IN [1] $end
$var wire 1 ( CLK_IN [0] $end
$var wire 1 :! cks [1] $end
$var wire 1 ;! cks [0] $end
$var reg 1 3" TMR_CLK_IN $end
$var reg 2 4" cks_r [1:0] $end
$var reg 1 5" TMR_CLK_IN_mux_out $end
$upscope $end

$scope module u_pos_edge_detect_synced $end
$var wire 1 [ pclk $end
$var wire 1 \ preset_n $end
$var wire 1 2" TMR_CLK_IN $end
$var wire 1 <! TMR_Edge $end
$var reg 1 6" TMR_CLK_IN_d $end
$upscope $end
$upscope $end

$scope module u_logic_control $end
$var wire 1 m TDR [7] $end
$var wire 1 n TDR [6] $end
$var wire 1 o TDR [5] $end
$var wire 1 p TDR [4] $end
$var wire 1 q TDR [3] $end
$var wire 1 r TDR [2] $end
$var wire 1 s TDR [1] $end
$var wire 1 t TDR [0] $end
$var wire 1 u TCR [7] $end
$var wire 1 v TCR [6] $end
$var wire 1 w TCR [5] $end
$var wire 1 x TCR [4] $end
$var wire 1 y TCR [3] $end
$var wire 1 z TCR [2] $end
$var wire 1 { TCR [1] $end
$var wire 1 | TCR [0] $end
$var wire 1 /! count_start_value [7] $end
$var wire 1 0! count_start_value [6] $end
$var wire 1 1! count_start_value [5] $end
$var wire 1 2! count_start_value [4] $end
$var wire 1 3! count_start_value [3] $end
$var wire 1 4! count_start_value [2] $end
$var wire 1 5! count_start_value [1] $end
$var wire 1 6! count_start_value [0] $end
$var wire 1 7! count_load $end
$var wire 1 8! count_enable $end
$var wire 1 9! count_up_down $end
$var wire 1 :! cks [1] $end
$var wire 1 ;! cks [0] $end
$upscope $end

$scope module u_cnt_unit $end
$var wire 1 [ pclk $end
$var wire 1 \ preset_n $end
$var wire 1 <! TMR_Edge $end
$var wire 1 /! count_start_value [7] $end
$var wire 1 0! count_start_value [6] $end
$var wire 1 1! count_start_value [5] $end
$var wire 1 2! count_start_value [4] $end
$var wire 1 3! count_start_value [3] $end
$var wire 1 4! count_start_value [2] $end
$var wire 1 5! count_start_value [1] $end
$var wire 1 6! count_start_value [0] $end
$var wire 1 7! count_load $end
$var wire 1 8! count_enable $end
$var wire 1 9! count_up_down $end
$var reg 8 7" TCNT [7:0] $end
$upscope $end

$scope module u_ovf_udf_comp $end
$var wire 1 [ pclk $end
$var wire 1 \ preset_n $end
$var wire 1 '! TCNT [7] $end
$var wire 1 (! TCNT [6] $end
$var wire 1 )! TCNT [5] $end
$var wire 1 *! TCNT [4] $end
$var wire 1 +! TCNT [3] $end
$var wire 1 ,! TCNT [2] $end
$var wire 1 -! TCNT [1] $end
$var wire 1 .! TCNT [0] $end
$var wire 1 8! count_enable $end
$var wire 1 9! count_up_down $end
$var wire 1 } TSR [7] $end
$var wire 1 ~ TSR [6] $end
$var wire 1 !! TSR [5] $end
$var wire 1 "! TSR [4] $end
$var wire 1 #! TSR [3] $end
$var wire 1 $! TSR [2] $end
$var wire 1 %! TSR [1] $end
$var wire 1 &! TSR [0] $end
$var reg 1 8" TMR_OVF $end
$var reg 1 9" TMR_UDF $end
$var reg 8 :" TCNT_d [7:0] $end
$var reg 8 ;" TSR_d [7:0] $end
$upscope $end
$upscope $end
$upscope $end
$enddefinitions $end
#0
$dumpvars
0#
0$
b0 H
b0 I
b0 J
b0 K
b0 L
b11111111 M
b11111111 N
0T
0U
0V
0W
0X
0Y
0]
0^
0_
b11111111 `
b0 a
bx b
bx c
bx d
bx e
xf
bx g
bx h
xi
bx j
bx k
0g!
0h!
b0 i!
b0 j!
b0 n!
b0 o!
b0 p!
b0 0"
03"
b0 4"
05"
06"
b0 7"
08"
09"
b0 :"
b0 ;"
b1000 !
b1010 O
b1010 S
b1000 Z
b1000 l
b1000 ?!
b1000 c!
b0 d!
b1 e!
b10 f!
b1000 m!
b1000 /"
b0 "
0(
0'
0&
0%
0)
0*
0+
13
12
11
10
1/
1.
1-
1,
0;
0:
09
08
07
06
05
04
0C
0B
0A
0@
0?
0>
0=
0<
0D
0E
0F
0G
0R
0t
0s
0r
0q
0p
0o
0n
0m
0|
0{
0z
0y
0x
0w
0v
0u
0&!
0%!
0$!
0#!
0"!
0!!
0~
0}
0.!
0-!
0,!
0+!
0*!
0)!
0(!
0'!
06!
05!
04!
03!
02!
01!
00!
0/!
07!
08!
09!
0;!
0:!
0<!
0=!
0>!
0G!
0F!
0E!
0D!
0C!
0B!
0A!
0@!
0O!
0N!
0M!
0L!
0K!
0J!
0I!
0H!
0W!
0V!
0U!
0T!
0S!
0R!
0Q!
0P!
0X!
0Y!
0Z!
0b!
0a!
0`!
0_!
0^!
0]!
0\!
0[!
0k!
1l!
0s!
0r!
0q!
0t!
0|!
0{!
0z!
0y!
0x!
0w!
0v!
0u!
0&"
0%"
0$"
0#"
0""
0!"
0~!
0}!
0."
0-"
0,"
0+"
0*"
0)"
0("
0'"
01"
02"
0\
0[
0P
0Q
$end
#5000
1T
1R
1P
1#
1[
1V
1(
15"
1W
1'
1X
1&
1Y
1%
#10000
0T
0R
0P
0#
0[
#15000
1T
1R
1P
1#
1[
1U
1Q
1$
1\
b0 d
0V
0(
05"
#20000
0T
0R
0P
0#
0[
#25000
1T
1R
1P
1#
1[
b0 `
1]
1V
03
02
01
00
0/
0.
0-
0,
1s!
0l!
1)
1(
15"
b1 j!
1k!
1X!
11"
0W
0'
#30000
0T
0R
0P
0#
0[
#35000
1T
1R
1P
1#
1[
b1 i!
13"
1g!
1^
0V
0k!
12"
1Y!
1D
0X!
01"
1*
0(
1<!
05"
b10 j!
#40000
0T
0R
0P
0#
0[
#45000
1T
1R
1P
1#
1[
b0 e
b10111000 H
b0 b
b10111000 c
0]
0^
0)
0*
b1 j!
b10 i!
16"
0g!
03"
1V
0Y!
02"
0D
0<!
1(
15"
b0 j!
1W
1'
0X
0&
#50000
0T
0R
0P
0#
0[
#55000
1T
1R
1P
1#
1[
b10111000 a
1_
1]
18
17
16
14
1+
1y!
1x!
1w!
1u!
1""
1!"
1}!
1)
b0 i!
13"
06"
0V
12"
1<!
0(
05"
b1 j!
1k!
1X!
1t!
#60000
0T
0R
0P
0#
0[
#65000
1T
1R
1P
1#
1[
1^
1*
b0 j!
0k!
0X!
0t!
b1 i!
1g!
16"
03"
b10111000 n!
1V
1Y!
02"
1D!
1C!
1B!
1@!
1D
1q
1p
1o
1m
0<!
1(
15"
b10 j!
0W
0'
#70000
0T
0R
0P
0#
0[
#75000
1T
1R
1P
1#
1[
0]
0^
b0 a
08
07
06
04
0y!
0x!
0w!
0u!
0""
0!"
0}!
0)
0*
b1 j!
b10 i!
13"
06"
0g!
0V
12"
0Y!
0D
1<!
0(
05"
b0 j!
#80000
0T
0R
0P
0#
0[
#85000
1T
1R
1P
1#
1[
b0 i!
16"
03"
0_
1]
1V
02"
0+
0<!
1)
1(
15"
b1 j!
1k!
1X!
11"
1W
1'
1X
1&
0Y
0%
#90000
0T
0R
0P
0#
0[
#95000
1T
1R
1P
1#
1[
b1 i!
b10111000 0"
1g!
13"
06"
1^
0V
0k!
1_!
1^!
1]!
1[!
1Y!
12"
1D
0X!
1@
1?
1>
1<
01"
1<!
1*
0(
05"
b10 j!
#100000
0T
0R
0P
0#
0[
#105000
1T
1R
1P
1#
1[
b10111000 e
b10111000 J
b100110 H
b100110 c
0]
0^
0)
0*
b1 j!
b10 i!
16"
03"
0g!
1V
02"
0Y!
0D
0<!
1(
15"
b0 j!
0W
0'
#110000
0T
0R
0P
0#
0[
#115000
1T
1R
1P
1#
1[
b100110 a
1_
1]
1:
19
16
1+
1{!
1z!
1w!
1%"
1!"
1-"
1)
b0 i!
13"
06"
0V
12"
1<!
0(
05"
b1 j!
1k!
1X!
1t!
#120000
0T
0R
0P
0#
0[
#125000
1T
1R
1P
1#
1[
1^
1*
b0 j!
0k!
0X!
0t!
b1 i!
1g!
16"
03"
b100110 n!
1V
1Y!
02"
1F!
1E!
0D!
0C!
0@!
1D
1s
1r
0q
0p
0m
0<!
1(
15"
b10 j!
1W
1'
0X
0&
#130000
0T
0R
0P
0#
0[
#135000
1T
1R
1P
1#
1[
0]
0^
b0 a
0:
09
06
0{!
0z!
0w!
0%"
0!"
0-"
0)
0*
b1 j!
b10 i!
13"
06"
0g!
0V
12"
0Y!
0D
1<!
0(
05"
b0 j!
#140000
0T
0R
0P
0#
0[
#145000
1T
1R
1P
1#
1[
b0 i!
16"
03"
0_
1]
1V
02"
0+
0<!
1)
1(
15"
b1 j!
1k!
1X!
11"
0W
0'
#150000
0T
0R
0P
0#
0[
#155000
1T
1R
1P
1#
1[
b1 i!
b100110 0"
1g!
13"
06"
1^
0V
0k!
1a!
1`!
0_!
0^!
0[!
1Y!
12"
1D
0X!
1B
1A
0@
0?
0<
01"
1<!
1*
0(
05"
b10 j!
#160000
0T
0R
0P
0#
0[
#165000
1T
1R
1P
1#
1[
b100110 e
b100110 J
b1100110 H
b1100110 c
0]
0^
0)
0*
b1 j!
b10 i!
16"
03"
0g!
1V
02"
0Y!
0D
0<!
1(
15"
b0 j!
1W
1'
1X
1&
1Y
1%
#170000
0T
0R
0P
0#
0[
#175000
1T
1R
1P
1#
1[
b1100110 a
1_
1]
1:
19
16
15
1+
1{!
1z!
1w!
1v!
1%"
1!"
1-"
1)
b0 i!
13"
06"
0V
12"
1<!
0(
05"
b1 j!
1k!
1X!
1t!
#180000
0T
0R
0P
0#
0[
#185000
1T
1R
1P
1#
1[
1^
1*
b0 j!
0k!
0X!
0t!
b1 i!
1g!
16"
03"
b1100110 n!
1V
1Y!
02"
1A!
1D
1n
0<!
1(
15"
b10 j!
0W
0'
#190000
0T
0R
0P
0#
0[
#195000
1T
1R
1P
1#
1[
0]
0^
b0 a
0:
09
06
05
0{!
0z!
0w!
0v!
0%"
0!"
0-"
0)
0*
b1 j!
b10 i!
13"
06"
0g!
0V
12"
0Y!
0D
1<!
0(
05"
b0 j!
#200000
0T
0R
0P
0#
0[
#205000
1T
1R
1P
1#
1[
b0 i!
16"
03"
0_
1]
1V
02"
0+
0<!
1)
1(
15"
b1 j!
1k!
1X!
11"
1W
1'
0X
0&
#210000
0T
0R
0P
0#
0[
#215000
1T
1R
1P
1#
1[
b1 i!
b1100110 0"
1g!
13"
06"
1^
0V
0k!
1\!
1Y!
12"
1D
0X!
1=
01"
1<!
1*
0(
05"
b10 j!
#220000
0T
0R
0P
0#
0[
#225000
1T
1R
1P
1#
1[
b1100110 e
b1100110 J
b10110110 H
b10110110 c
0]
0^
0)
0*
b1 j!
b10 i!
16"
03"
0g!
1V
02"
0Y!
0D
0<!
1(
15"
b0 j!
0W
0'
#230000
0T
0R
0P
0#
0[
#235000
1T
1R
1P
1#
1[
b10110110 a
1_
1]
1:
19
17
16
14
1+
1{!
1z!
1x!
1w!
1u!
1%"
1""
1!"
1}!
1-"
1)
b0 i!
13"
06"
0V
12"
1<!
0(
05"
b1 j!
1k!
1X!
1t!
#240000
0T
0R
0P
0#
0[
#245000
1T
1R
1P
1#
1[
1^
1*
b0 j!
0k!
0X!
0t!
b1 i!
1g!
16"
03"
b10110110 n!
1V
1Y!
02"
1C!
0A!
1@!
1D
1p
0n
1m
0<!
1(
15"
b10 j!
1W
1'
1X
1&
0Y
0%
#250000
0T
0R
0P
0#
0[
#255000
1T
1R
1P
1#
1[
0]
0^
b0 a
0:
09
07
06
04
0{!
0z!
0x!
0w!
0u!
0%"
0""
0!"
0}!
0-"
0)
0*
b1 j!
b10 i!
13"
06"
0g!
0V
12"
0Y!
0D
1<!
0(
05"
b0 j!
#260000
0T
0R
0P
0#
0[
#265000
1T
1R
1P
1#
1[
b0 i!
16"
03"
0_
1]
1V
02"
0+
0<!
1)
1(
15"
b1 j!
1k!
1X!
11"
0W
0'
#270000
0T
0R
0P
0#
0[
#275000
1T
1R
1P
1#
1[
b1 i!
b10110110 0"
1g!
13"
06"
1^
0V
0k!
1^!
0\!
1[!
1Y!
12"
1D
0X!
1?
0=
1<
01"
1<!
1*
0(
05"
b10 j!
#280000
0T
0R
0P
0#
0[
#285000
1T
1R
1P
1#
1[
b10110110 e
b10110110 J
b11000110 H
b11000110 c
0]
0^
0)
0*
b1 j!
b10 i!
16"
03"
0g!
1V
02"
0Y!
0D
0<!
1(
15"
b0 j!
1W
1'
0X
0&
#290000
0T
0R
0P
0#
0[
